{
  "$schema": "http://json-schema.org/draft/2019-09/schema",
  "$id": "http://example.com/example.json",
  "type": "object",
  "default": {},
  "title": "Root Schema",
  "required": [
    "token_type",
    "expires_in",
    "access_token",
    "refresh_token"
  ],
  "properties": {
    "token_type": {
      "type": "string",
      "default": "",
      "title": "The token_type Schema",
      "examples": [
        "Bearer"
      ]
    },
    "expires_in": {
      "type": "integer",
      "default": 0,
      "title": "The expires_in Schema",
      "examples": [
        3600
      ]
    },
    "access_token": {
      "type": "string",
      "default": "",
      "title": "The access_token Schema",
      "examples": [
        "2YotnFZFEjr1zCsicMWpAA"
      ]
    },
    "refresh_token": {
      "type": "string",
      "default": "",
      "title": "The refresh_token Schema",
      "examples": [
        "def50200fcc006121b6a068eced57"
      ]
    }
  },
  "examples": [{
    "token_type": "Bearer",
    "expires_in": 3600,
    "access_token": "2YotnFZFEjr1zCsicMWpAA",
    "refresh_token": "def50200fcc006121b6a068eced57"
  }]
}